v 20130925 2
B 300 300 400 300 3 0 0 0 -1 -1 0 -1 -1 -1 -1 -1
L 700 500 900 650 3 0 0 0 -1 -1
L 900 650 900 400 3 0 0 0 -1 -1
L 700 350 900 400 3 0 0 0 -1 -1
P 500 850 500 600 1 0 0
{
T 500 750 5 10 0 0 0 0 1
pintype=N
T 500 545 5 10 0 1 90 6 1
pinlabel=N
T 450 695 5 10 0 1 90 0 1
pinnumber=1
T 500 750 5 10 0 0 0 0 1
pinseq=1
}
P 500 50 500 300 1 0 0
{
T 500 150 5 10 0 0 0 0 1
pintype=L
T 500 355 5 10 0 1 90 0 1
pinlabel=L
T 450 205 5 10 0 1 90 6 1
pinnumber=2
T 500 150 5 10 0 0 0 0 1
pinseq=2
}
T 800 745 8 10 1 1 0 0 1
refdes=H?
T 0 0 8 10 0 1 0 0 1
device=ACBUZZER
T 0 0 8 10 0 1 0 0 1
description=AC Buzzer
T 0 0 8 10 0 1 0 0 1
author=Aitzol Berasategi <aitzol@disroot.org>
T 0 0 8 10 0 1 0 0 1
dist-license=GPL
T 0 0 8 10 0 1 0 0 1
use-license=unlimited
T 0 0 8 10 0 1 0 0 1
copyright=2019 Aitzol Berasategi