v 20130925 2
B 500 200 200 200 3 0 0 0 -1 -1 0 -1 -1 -1 -1 -1
L 600 400 400 800 3 0 0 0 -1 -1
P 600 1000 600 800 1 0 0
{
T 600 1000 5 10 0 0 180 0 1
pintype=in
T 600 745 5 10 0 1 90 6 1
pinlabel=L
T 550 895 5 10 0 1 90 0 1
pinnumber=1
T 600 1000 5 10 0 0 180 0 1
pinseq=1
}
P 600 0 600 200 1 0 0
{
T 600 0 5 10 0 0 0 0 1
pintype=out
T 600 255 5 10 0 1 90 0 1
pinlabel=L
T 550 105 5 10 0 1 90 6 1
pinnumber=2
T 600 0 5 10 0 0 0 0 1
pinseq=2
}
B 0 500 200 200 3 0 0 0 -1 -1 0 -1 -1 -1 -1 -1
L 100 400 100 300 3 0 0 0 -1 -1
L 100 300 200 300 3 0 0 0 -1 -1
L 300 300 400 300 3 0 0 0 -1 -1
L 200 600 300 600 3 0 0 0 -1 -1
L 400 600 500 600 3 0 0 0 -1 -1
T 600 300 9 13 1 0 0 4 1
I>
P 900 1000 900 800 1 0 0
{
T 900 1000 5 10 0 0 0 0 1
pintype=in
T 900 745 5 10 0 1 90 6 1
pinlabel=L
T 850 895 5 10 0 1 90 0 1
pinnumber=3
T 900 1000 5 10 0 0 0 0 1
pinseq=3
}
L 900 400 700 800 3 0 0 0 -1 -1
P 900 0 900 200 1 0 0
{
T 900 0 5 10 0 0 0 0 1
pintype=out
T 900 255 5 10 0 1 90 0 1
pinlabel=L
T 850 105 5 10 0 1 90 6 1
pinnumber=4
T 900 0 5 10 0 0 0 0 1
pinseq=4
}
L 900 400 900 200 3 0 0 0 -1 -1
L 700 300 900 300 3 0 0 2 100 100
T 1000 595 8 10 1 1 0 0 1
refdes=QM?
T 1000 395 8 8 1 1 0 0 1
value=?A
T 0 0 8 10 0 1 0 0 1
device=CIRCUITBREAKER2P
T 0 0 8 10 0 1 0 0 1
description=Circuit Breaker 2p
T 0 0 8 10 0 1 0 0 1
author=Aitzol Berasategi <aitzol@disroot.org>
T 0 0 8 10 0 1 0 0 1
dist-license=GPL
T 0 0 8 10 0 1 0 0 1
use-license=unlimited
T 0 0 8 10 0 1 0 0 1
copyright=2019 Aitzol Berasategi