v 20130925 2
B 1000 900 200 200 3 0 0 0 -1 -1 0 -1 -1 -1 -1 -1
L 1100 1100 900 1500 3 0 0 0 -1 -1
P 1100 1700 1100 1500 1 0 0
{
T 1100 1700 5 10 0 0 180 0 1
pintype=in
T 1100 1445 5 10 0 1 90 6 1
pinlabel=L
T 1050 1595 5 10 0 1 90 0 1
pinnumber=1
T 1100 1700 5 10 0 0 180 0 1
pinseq=1
}
P 1100 700 1100 900 1 0 0
{
T 1100 700 5 10 0 0 0 0 1
pintype=out
T 1100 955 5 10 0 1 90 0 1
pinlabel=L
T 1050 805 5 10 0 1 90 6 1
pinnumber=2
T 1100 700 5 10 0 0 0 0 1
pinseq=2
}
L 600 1100 600 1000 3 0 0 0 -1 -1
L 600 1000 700 1000 3 0 0 0 -1 -1
L 800 1000 900 1000 3 0 0 0 -1 -1
L 700 1300 800 1300 3 0 0 0 -1 -1
L 900 1300 1000 1300 3 0 0 0 -1 -1
T 1100 1000 9 13 1 0 0 4 1
I>
B 500 1200 200 200 3 0 0 0 -1 -1 0 -1 -1 -1 -1 -1
L 300 1300 400 1300 3 0 0 0 -1 -1
L 250 1200 300 1200 3 0 0 0 -1 -1
L 300 1200 300 1400 3 0 0 0 -1 -1
L 300 1400 350 1400 3 0 0 0 -1 -1
L 600 1400 600 1200 3 10 0 0 -1 -1
L 500 1300 700 1300 3 10 0 0 -1 -1
T 1200 1295 8 10 1 1 0 0 1
refdes=QF?
T 1200 1095 8 8 1 1 0 0 1
value=?mA
T 0 0 8 10 0 1 0 0 1
device=DIFFERENTIALCIRCUITBREAKER
T 0 0 8 10 0 1 0 0 1
description=Differential Circuit Breaker
T 0 0 8 10 0 1 0 0 1
author=Aitzol Berasategi <aitzol@disroot.org>
T 0 0 8 10 0 1 0 0 1
dist-license=GPL
T 0 0 8 10 0 1 0 0 1
use-license=unlimited
T 0 0 8 10 0 1 0 0 1
copyright=2019 Aitzol Berasategi