v 20130925 2
P 400 800 400 530 1 0 0
{
T 400 800 5 10 0 0 0 0 1
pintype=pwr
T 400 545 5 10 0 1 90 6 1
pinlabel=L
T 350 695 5 10 0 1 90 0 1
pinnumber=1
T 400 800 5 10 0 0 0 0 1
pinseq=1
}
P 400 0 400 270 1 0 0
{
T 400 0 5 10 0 0 0 0 1
pintype=pwr
T 400 255 5 10 0 1 90 0 1
pinlabel=N
T 350 105 5 10 0 1 90 6 1
pinnumber=2
T 400 0 5 10 0 0 0 0 1
pinseq=2
}
B 110 270 580 260 3 0 0 0 -1 -1 0 -1 -1 -1 -1 -1
T 785 595 8 10 1 1 0 0 1
refdes=K?
T 800 425 8 8 1 1 0 0 1
value=??V
T 0 0 8 10 0 1 0 0 1
device=GENERICACRELAY
T 0 0 8 10 0 1 0 0 1
description=Generic AC Relay
T 0 0 8 10 0 1 0 0 1
author=Aitzol Berasategi <aitzol@disroot.org>
T 0 0 8 10 0 1 0 0 1
dist-license=GPL
T 0 0 8 10 0 1 0 0 1
use-license=unlimited
T 0 0 8 10 0 1 0 0 1
copyright=2019 Aitzol Berasategi