v 20130925 2
L 240 500 300 430 3 0 0 0 -1 -1
L 300 430 240 360 3 0 0 0 -1 -1
L 490 430 140 430 3 0 0 0 -1 -1
P 400 800 400 630 1 0 0
{
T 400 800 5 10 0 0 0 0 1
pintype=io
T 400 545 5 10 0 1 90 6 1
pinlabel=io
T 350 695 5 10 0 1 90 0 1
pinnumber=1
T 400 800 5 10 0 0 0 0 1
pinseq=1
}
P 400 0 400 170 1 0 0
{
T 400 0 5 10 0 0 0 0 1
pintype=io
T 400 255 5 10 0 1 90 0 1
pinlabel=io
T 350 105 5 10 0 1 90 6 1
pinnumber=2
T 400 0 5 10 0 0 0 0 1
pinseq=2
}
L 430 600 600 600 3 0 0 0 -1 -1
L 410 230 580 650 3 0 0 0 -1 -1
V 400 600 30 3 0 0 0 -1 -1 0 -1 -1 -1 -1 -1
V 400 200 30 3 0 0 0 -1 -1 0 -1 -1 -1 -1 -1
T 579 295 8 10 1 1 0 0 1
refdes=t?
T 0 0 8 10 0 1 0 0 1
device=NCTIMEDOPENCONTACT
T 0 0 8 10 0 1 0 0 1
description=NC Timed Open Contact
T 0 0 8 10 0 1 0 0 1
author=Aitzol Berasategi <aitzol@disroot.org>
T 0 0 8 10 0 1 0 0 1
dist-license=GPL
T 0 0 8 10 0 1 0 0 1
use-license=unlimited
T 0 0 8 10 0 1 0 0 1
copyright=2019 Aitzol Berasategi