v 20130925 2
L 475 451 138 451 3 0 0 0 -1 -1
L 500 401 138 401 3 0 0 0 -1 -1
L 238 491 298 421 3 0 0 0 -1 -1
L 298 421 238 351 3 0 0 0 -1 -1
V 600 599 30 3 0 0 0 -1 -1 0 -1 -1 -1 -1 -1
V 600 199 30 3 0 0 0 -1 -1 0 -1 -1 -1 -1 -1
L 587 228 422 559 3 0 0 0 -1 -1
P 600 797 600 629 1 0 0
{
T 600 797 5 10 0 0 0 0 1
pintype=io
T 600 574 5 10 0 1 90 6 1
pinlabel=io
T 550 724 5 10 0 1 90 0 1
pinnumber=1
T 600 797 5 10 0 0 0 0 1
pinseq=1
}
P 601 -5 601 168 1 0 0
{
T 601 -5 5 10 0 0 0 0 1
pintype=io
T 601 223 5 10 0 1 90 0 1
pinlabel=io
T 551 73 5 10 0 1 90 6 1
pinnumber=2
T 601 -5 5 10 0 0 0 0 1
pinseq=2
}
T 680 296 8 10 1 1 0 0 1
refdes=t?
T 0 0 8 10 0 1 0 0 1
device=NOTIMEDCLOSEDCONTACT
T 0 0 8 10 0 1 0 0 1
description=NO Timed Closed Contact
T 0 0 8 10 0 1 0 0 1
author=Aitzol Berasategi <aitzol@disroot.org>
T 0 0 8 10 0 1 0 0 1
dist-license=GPL
T 0 0 8 10 0 1 0 0 1
use-license=unlimited
T 0 0 8 10 0 1 0 0 1
copyright=2019 Aitzol Berasategi