v 20130925 2
V 300 230 90 3 0 0 0 -1 -1 0 -1 -1 -1 -1 -1
L 210 150 380 310 3 0 0 0 -1 -1
P 300 400 300 320 1 0 0
{
T 300 400 5 10 0 0 0 0 1
pintype=io
T 300 265 5 10 0 1 90 6 1
pinlabel=x
T 250 415 5 10 0 1 90 0 1
pinnumber=1						
T 300 400 5 10 0 0 0 0 1
pinseq=1
}
T 400 200 8 10 1 1 0 0 1
refdes=X?
T 0 0 8 10 0 1 0 0 1
device=TERMINAL 01
T 0 0 8 10 0 1 0 0 1
description=Terminal
T 0 0 8 10 0 1 0 0 1
author=Aitzol Berasategi <aitzol@disroot.org>
T 0 0 8 10 0 1 0 0 1
dist-license=GPL
T 0 0 8 10 0 1 0 0 1
use-license=unlimited
T 0 0 8 10 0 1 0 0 1
copyright=2019 Aitzol Berasategi