v 20130925 2
P 160 530 160 330 1 0 0
{
T 160 530 5 10 0 0 0 0 1
pintype=io
T 160 275 5 10 0 1 90 6 1
pinlabel=+
T 110 425 5 10 0 1 90 0 1
pinnumber=1
T 160 530 5 10 0 0 0 0 1
pinseq=1
}
P 740 530 740 330 1 0 0
{
T 740 530 5 10 0 0 0 0 1
pintype=io
T 740 275 5 10 0 1 90 6 1
pinlabel=-
T 690 425 5 10 0 1 90 0 1
pinnumber=2
T 740 530 5 10 0 0 0 0 1
pinseq=2
}
V 450 60 60 3 0 0 0 -1 -1 1 -1 -1 -1 -1 -1
L 160 330 410 90 3 3 0 0 -1 -1
L 740 330 490 90 3 3 0 0 -1 -1
T 790 210 8 10 1 1 0 0 1
refdes=TH?
T 790 20 8 6 1 1 0 0 1
value=Type:?
T 0 0 8 10 0 1 0 0 1
device=THERMOPAR
T 0 0 8 10 0 1 0 0 1
description=Thermopar
T 0 0 8 10 0 1 0 0 1
author=Aitzol Berasategi <aitzol@disroot.org>
T 0 0 8 10 0 1 0 0 1
dist-license=GPL
T 0 0 8 10 0 1 0 0 1
use-license=unlimited
T 0 0 8 10 0 1 0 0 1
copyright=2019 Aitzol Berasategi